<mxfile host="Electron" agent="Mozilla/5.0 (Windows NT 10.0; Win64; x64) AppleWebKit/537.36 (KHTML, like Gecko) draw.io/24.7.8 Chrome/128.0.6613.36 Electron/32.0.1 Safari/537.36" version="24.7.8">
  <diagram name="Page-1" id="3XHsslVRekKV6F6jn80C">
    <mxGraphModel dx="1605" dy="685" grid="1" gridSize="10" guides="1" tooltips="1" connect="1" arrows="1" fold="1" page="1" pageScale="1" pageWidth="850" pageHeight="1100" math="0" shadow="0">
      <root>
        <mxCell id="0" />
        <mxCell id="1" parent="0" />
        <mxCell id="sTDM4z2XDI6x-JbLziQT-28" style="edgeStyle=none;shape=connector;rounded=0;orthogonalLoop=1;jettySize=auto;html=1;entryX=0;entryY=0.5;entryDx=0;entryDy=0;strokeColor=default;align=center;verticalAlign=middle;fontFamily=Helvetica;fontSize=11;fontColor=default;labelBackgroundColor=default;endArrow=classic;" parent="1" source="sTDM4z2XDI6x-JbLziQT-21" target="sTDM4z2XDI6x-JbLziQT-22" edge="1">
          <mxGeometry relative="1" as="geometry" />
        </mxCell>
        <mxCell id="sTDM4z2XDI6x-JbLziQT-29" value="minus" style="edgeLabel;html=1;align=center;verticalAlign=middle;resizable=0;points=[];fontFamily=Helvetica;fontSize=11;fontColor=default;labelBackgroundColor=default;" parent="sTDM4z2XDI6x-JbLziQT-28" vertex="1" connectable="0">
          <mxGeometry x="0.1589" y="-1" relative="1" as="geometry">
            <mxPoint as="offset" />
          </mxGeometry>
        </mxCell>
        <mxCell id="sTDM4z2XDI6x-JbLziQT-30" style="edgeStyle=none;shape=connector;rounded=0;orthogonalLoop=1;jettySize=auto;html=1;entryX=0;entryY=0.5;entryDx=0;entryDy=0;strokeColor=default;align=center;verticalAlign=middle;fontFamily=Helvetica;fontSize=11;fontColor=default;labelBackgroundColor=default;endArrow=classic;" parent="1" source="sTDM4z2XDI6x-JbLziQT-21" target="sTDM4z2XDI6x-JbLziQT-23" edge="1">
          <mxGeometry relative="1" as="geometry" />
        </mxCell>
        <mxCell id="sTDM4z2XDI6x-JbLziQT-31" value="D" style="edgeLabel;html=1;align=center;verticalAlign=middle;resizable=0;points=[];fontFamily=Helvetica;fontSize=11;fontColor=default;labelBackgroundColor=default;" parent="sTDM4z2XDI6x-JbLziQT-30" vertex="1" connectable="0">
          <mxGeometry x="0.1423" y="1" relative="1" as="geometry">
            <mxPoint as="offset" />
          </mxGeometry>
        </mxCell>
        <mxCell id="sTDM4z2XDI6x-JbLziQT-32" style="edgeStyle=none;shape=connector;rounded=0;orthogonalLoop=1;jettySize=auto;html=1;entryX=0;entryY=0.5;entryDx=0;entryDy=0;strokeColor=default;align=center;verticalAlign=middle;fontFamily=Helvetica;fontSize=11;fontColor=default;labelBackgroundColor=default;endArrow=classic;" parent="1" source="sTDM4z2XDI6x-JbLziQT-21" target="sTDM4z2XDI6x-JbLziQT-24" edge="1">
          <mxGeometry relative="1" as="geometry" />
        </mxCell>
        <mxCell id="sTDM4z2XDI6x-JbLziQT-33" value="Dot" style="edgeLabel;html=1;align=center;verticalAlign=middle;resizable=0;points=[];fontFamily=Helvetica;fontSize=11;fontColor=default;labelBackgroundColor=default;" parent="sTDM4z2XDI6x-JbLziQT-32" vertex="1" connectable="0">
          <mxGeometry x="-0.1582" y="-2" relative="1" as="geometry">
            <mxPoint as="offset" />
          </mxGeometry>
        </mxCell>
        <mxCell id="sTDM4z2XDI6x-JbLziQT-21" value="S0={0, 1, 3 , 4, 5, 7, 12, 13, 14, 15}" style="ellipse;whiteSpace=wrap;html=1;fontFamily=Helvetica;fontSize=11;fontColor=default;labelBackgroundColor=default;" parent="1" vertex="1">
          <mxGeometry x="-130" y="320" width="180" height="70" as="geometry" />
        </mxCell>
        <mxCell id="sTDM4z2XDI6x-JbLziQT-34" style="edgeStyle=none;shape=connector;rounded=0;orthogonalLoop=1;jettySize=auto;html=1;strokeColor=default;align=center;verticalAlign=middle;fontFamily=Helvetica;fontSize=11;fontColor=default;labelBackgroundColor=default;endArrow=classic;entryX=1;entryY=1;entryDx=0;entryDy=0;" parent="1" source="sTDM4z2XDI6x-JbLziQT-22" target="sTDM4z2XDI6x-JbLziQT-23" edge="1">
          <mxGeometry relative="1" as="geometry">
            <mxPoint x="210" y="190" as="targetPoint" />
          </mxGeometry>
        </mxCell>
        <mxCell id="sTDM4z2XDI6x-JbLziQT-35" value="D" style="edgeLabel;html=1;align=center;verticalAlign=middle;resizable=0;points=[];fontFamily=Helvetica;fontSize=11;fontColor=default;labelBackgroundColor=default;" parent="sTDM4z2XDI6x-JbLziQT-34" vertex="1" connectable="0">
          <mxGeometry x="0.1268" y="-4" relative="1" as="geometry">
            <mxPoint y="1" as="offset" />
          </mxGeometry>
        </mxCell>
        <mxCell id="sTDM4z2XDI6x-JbLziQT-36" style="edgeStyle=none;shape=connector;rounded=0;orthogonalLoop=1;jettySize=auto;html=1;entryX=0.5;entryY=0;entryDx=0;entryDy=0;strokeColor=default;align=center;verticalAlign=middle;fontFamily=Helvetica;fontSize=11;fontColor=default;labelBackgroundColor=default;endArrow=classic;" parent="1" source="sTDM4z2XDI6x-JbLziQT-22" target="sTDM4z2XDI6x-JbLziQT-24" edge="1">
          <mxGeometry relative="1" as="geometry" />
        </mxCell>
        <mxCell id="sTDM4z2XDI6x-JbLziQT-37" value="Dot" style="edgeLabel;html=1;align=center;verticalAlign=middle;resizable=0;points=[];fontFamily=Helvetica;fontSize=11;fontColor=default;labelBackgroundColor=default;" parent="sTDM4z2XDI6x-JbLziQT-36" vertex="1" connectable="0">
          <mxGeometry x="-0.1658" y="2" relative="1" as="geometry">
            <mxPoint as="offset" />
          </mxGeometry>
        </mxCell>
        <mxCell id="sTDM4z2XDI6x-JbLziQT-22" value="S1={2, 3, 4, 5, 7, 14, 15}" style="ellipse;whiteSpace=wrap;html=1;fontFamily=Helvetica;fontSize=11;fontColor=default;labelBackgroundColor=default;" parent="1" vertex="1">
          <mxGeometry x="140" y="270" width="130" height="80" as="geometry" />
        </mxCell>
        <mxCell id="sTDM4z2XDI6x-JbLziQT-38" style="edgeStyle=orthogonalEdgeStyle;shape=connector;rounded=0;orthogonalLoop=1;jettySize=auto;html=1;strokeColor=default;align=center;verticalAlign=middle;fontFamily=Helvetica;fontSize=11;fontColor=default;labelBackgroundColor=default;endArrow=classic;curved=1;entryX=1;entryY=0;entryDx=0;entryDy=0;exitX=0.5;exitY=0;exitDx=0;exitDy=0;" parent="1" source="sTDM4z2XDI6x-JbLziQT-23" target="sTDM4z2XDI6x-JbLziQT-23" edge="1">
          <mxGeometry relative="1" as="geometry">
            <mxPoint x="190" y="110" as="targetPoint" />
            <Array as="points">
              <mxPoint x="50" y="170" />
              <mxPoint x="50" y="140" />
              <mxPoint x="102" y="140" />
              <mxPoint x="102" y="170" />
            </Array>
          </mxGeometry>
        </mxCell>
        <mxCell id="sTDM4z2XDI6x-JbLziQT-39" value="D" style="edgeLabel;html=1;align=center;verticalAlign=middle;resizable=0;points=[];fontFamily=Helvetica;fontSize=11;fontColor=default;labelBackgroundColor=default;" parent="sTDM4z2XDI6x-JbLziQT-38" vertex="1" connectable="0">
          <mxGeometry x="-0.1111" y="-2" relative="1" as="geometry">
            <mxPoint as="offset" />
          </mxGeometry>
        </mxCell>
        <mxCell id="sTDM4z2XDI6x-JbLziQT-40" style="edgeStyle=none;shape=connector;rounded=0;orthogonalLoop=1;jettySize=auto;html=1;entryX=0;entryY=0;entryDx=0;entryDy=0;strokeColor=default;align=center;verticalAlign=middle;fontFamily=Helvetica;fontSize=11;fontColor=default;labelBackgroundColor=default;endArrow=classic;" parent="1" source="sTDM4z2XDI6x-JbLziQT-23" target="sTDM4z2XDI6x-JbLziQT-27" edge="1">
          <mxGeometry relative="1" as="geometry">
            <mxPoint x="210" y="210" as="targetPoint" />
          </mxGeometry>
        </mxCell>
        <mxCell id="sTDM4z2XDI6x-JbLziQT-41" value="Dot" style="edgeLabel;html=1;align=center;verticalAlign=middle;resizable=0;points=[];fontFamily=Helvetica;fontSize=11;fontColor=default;labelBackgroundColor=default;" parent="sTDM4z2XDI6x-JbLziQT-40" vertex="1" connectable="0">
          <mxGeometry x="0.0071" y="1" relative="1" as="geometry">
            <mxPoint as="offset" />
          </mxGeometry>
        </mxCell>
        <mxCell id="sTDM4z2XDI6x-JbLziQT-23" value="S2={5, 6, 7, 15, 16, 17}" style="ellipse;whiteSpace=wrap;html=1;fontFamily=Helvetica;fontSize=11;fontColor=default;labelBackgroundColor=default;" parent="1" vertex="1">
          <mxGeometry y="170" width="120" height="80" as="geometry" />
        </mxCell>
        <mxCell id="sTDM4z2XDI6x-JbLziQT-42" value="" style="edgeStyle=none;shape=connector;rounded=0;orthogonalLoop=1;jettySize=auto;html=1;strokeColor=default;align=center;verticalAlign=middle;fontFamily=Helvetica;fontSize=11;fontColor=default;labelBackgroundColor=default;endArrow=classic;entryX=0;entryY=1;entryDx=0;entryDy=0;" parent="1" source="sTDM4z2XDI6x-JbLziQT-24" target="sTDM4z2XDI6x-JbLziQT-27" edge="1">
          <mxGeometry relative="1" as="geometry">
            <mxPoint x="234.85129819891563" y="444.243228056833" as="targetPoint" />
          </mxGeometry>
        </mxCell>
        <mxCell id="sTDM4z2XDI6x-JbLziQT-43" value="D" style="edgeLabel;html=1;align=center;verticalAlign=middle;resizable=0;points=[];fontFamily=Helvetica;fontSize=11;fontColor=default;labelBackgroundColor=default;" parent="sTDM4z2XDI6x-JbLziQT-42" vertex="1" connectable="0">
          <mxGeometry x="-0.2032" y="4" relative="1" as="geometry">
            <mxPoint x="-3" as="offset" />
          </mxGeometry>
        </mxCell>
        <mxCell id="sTDM4z2XDI6x-JbLziQT-24" value="S3={8, 9}" style="ellipse;whiteSpace=wrap;html=1;fontFamily=Helvetica;fontSize=11;fontColor=default;labelBackgroundColor=default;" parent="1" vertex="1">
          <mxGeometry x="120" y="390" width="120" height="80" as="geometry" />
        </mxCell>
        <mxCell id="sTDM4z2XDI6x-JbLziQT-27" value="&lt;div&gt;S4={8, 9, 18, 19, 21, 22}&lt;br&gt;&lt;/div&gt;S5={9,10,11,19,20,21,22}&lt;div&gt;S6={9,10,11,22}&lt;br&gt;&lt;/div&gt;" style="ellipse;whiteSpace=wrap;html=1;fontFamily=Helvetica;fontSize=11;fontColor=default;labelBackgroundColor=default;shape=doubleEllipse;" parent="1" vertex="1">
          <mxGeometry x="350" y="260" width="170" height="110" as="geometry" />
        </mxCell>
        <mxCell id="sTDM4z2XDI6x-JbLziQT-48" style="edgeStyle=orthogonalEdgeStyle;shape=connector;rounded=0;orthogonalLoop=1;jettySize=auto;html=1;strokeColor=default;align=center;verticalAlign=middle;fontFamily=Helvetica;fontSize=11;fontColor=default;labelBackgroundColor=default;endArrow=classic;curved=1;entryX=1;entryY=0.5;entryDx=0;entryDy=0;exitX=0.829;exitY=0.126;exitDx=0;exitDy=0;exitPerimeter=0;" parent="1" source="sTDM4z2XDI6x-JbLziQT-27" target="sTDM4z2XDI6x-JbLziQT-27" edge="1">
          <mxGeometry relative="1" as="geometry">
            <mxPoint x="470" y="300" as="targetPoint" />
            <mxPoint x="450" y="270" as="sourcePoint" />
            <Array as="points">
              <mxPoint x="491" y="240" />
              <mxPoint x="520" y="240" />
            </Array>
          </mxGeometry>
        </mxCell>
        <mxCell id="sTDM4z2XDI6x-JbLziQT-49" value="D" style="edgeLabel;html=1;align=center;verticalAlign=middle;resizable=0;points=[];fontFamily=Helvetica;fontSize=11;fontColor=default;labelBackgroundColor=default;" parent="sTDM4z2XDI6x-JbLziQT-48" vertex="1" connectable="0">
          <mxGeometry x="0.2351" y="1" relative="1" as="geometry">
            <mxPoint as="offset" />
          </mxGeometry>
        </mxCell>
      </root>
    </mxGraphModel>
  </diagram>
</mxfile>
