{
  "main": {
    "id": "aa4b87901d717dc9",
    "type": "split",
    "children": [
      {
        "id": "1d537fbc79703a83",
        "type": "tabs",
        "children": [
          {
            "id": "2a170cc19f07b3ca",
            "type": "leaf",
            "state": {
              "type": "empty",
              "state": {}
            }
          }
        ]
      }
    ],
    "direction": "vertical"
  },
  "left": {
    "id": "095ad8fd636db177",
    "type": "split",
    "children": [
      {
        "id": "be3568c8a9676437",
        "type": "tabs",
        "children": [
          {
            "id": "e1a29e25aa9d5026",
            "type": "leaf",
            "state": {
              "type": "file-explorer",
              "state": {
                "sortOrder": "alphabetical"
              }
            }
          },
          {
            "id": "f52a32f48de260ed",
            "type": "leaf",
            "state": {
              "type": "search",
              "state": {
                "query": "",
                "matchingCase": false,
                "explainSearch": false,
                "collapseAll": false,
                "extraContext": false,
                "sortOrder": "alphabetical"
              }
            }
          },
          {
            "id": "6bac4f9de2a1d837",
            "type": "leaf",
            "state": {
              "type": "bookmarks",
              "state": {}
            }
          }
        ]
      }
    ],
    "direction": "horizontal",
    "width": 200
  },
  "right": {
    "id": "60680c78580f7d00",
    "type": "split",
    "children": [
      {
        "id": "e7c140d117155237",
        "type": "tabs",
        "children": [
          {
            "id": "68611b1178ab5ea1",
            "type": "leaf",
            "state": {
              "type": "backlink",
              "state": {
                "collapseAll": false,
                "extraContext": false,
                "sortOrder": "alphabetical",
                "showSearch": false,
                "searchQuery": "",
                "backlinkCollapsed": false,
                "unlinkedCollapsed": true
              }
            }
          },
          {
            "id": "107a5164da26fc71",
            "type": "leaf",
            "state": {
              "type": "outgoing-link",
              "state": {
                "linksCollapsed": false,
                "unlinkedCollapsed": true
              }
            }
          },
          {
            "id": "62c28b13d3f115a9",
            "type": "leaf",
            "state": {
              "type": "tag",
              "state": {
                "sortOrder": "frequency",
                "useHierarchy": true
              }
            }
          },
          {
            "id": "8e84c890280e58b8",
            "type": "leaf",
            "state": {
              "type": "outline",
              "state": {}
            }
          },
          {
            "id": "9f7fa8b7db572f8c",
            "type": "leaf",
            "state": {
              "type": "advanced-tables-toolbar",
              "state": {}
            }
          }
        ],
        "currentTab": 4
      }
    ],
    "direction": "horizontal",
    "width": 200,
    "collapsed": true
  },
  "left-ribbon": {
    "hiddenItems": {
      "switcher:Open quick switcher": false,
      "graph:Open graph view": false,
      "canvas:Create new canvas": false,
      "daily-notes:Open today's daily note": false,
      "templates:Insert template": false,
      "command-palette:Open command palette": false,
      "table-editor-obsidian:Advanced Tables Toolbar": false
    }
  },
  "active": "e1a29e25aa9d5026",
  "lastOpenFiles": [
    "ЦЭиС/Ответы на Зачет (чатГПТ).pdf",
    "ЦЭиС/Ответы на Зачет (чатГПТ).md",
    "Ответы на Зачет (чатГПТ).pdf",
    "math/Лекции.pdf",
    "math/module2/63F55930",
    "math/module2/2E3D4930",
    "math/module2/7B3D4930",
    "math/module2/1and2/~$Модуль.xlsx",
    "math/module2/C2944930",
    "math/module2/~$Кужелев А.М. 22ПГ.xlsx",
    "math/module2/1and2/~$task2.xlsx",
    "math/module2/~$task2.xlsx",
    "Теор-вер и статистика/Модуль Вариант 19.md",
    "Pasted image 20240501131234.png",
    "2_SEM/Теор-вер и статистика/Модуль Вариант 19.md",
    "Pasted image 20240501132126.png",
    "2_SEM/Теор-вер и статистика/Лекции.md",
    "Untitled.canvas",
    "2_SEM/Databases/Kursach/models/newPhysWithProgress.png",
    "2_SEM/Databases/Kursach/models/newLogWithProgress.png",
    "2_SEM/Databases/Kursach/Chen/new diagram with progress.drawio.png",
    "2_SEM/Databases/lab2/deletion.md",
    "2_SEM/Теор-вер и статистика/Pasted image 20240320112620.png",
    "2_SEM/Теор-вер и статистика/Pasted image 20240320110239.png",
    "2_SEM/Теор-вер и статистика/Pasted image 20240320105947.png",
    "2_SEM/Теор-вер и статистика/Pasted image 20240320105431.png",
    "2_SEM/Теор-вер и статистика/Pasted image 20240320104434.png",
    "2_SEM/ЦЭиС/Формулы когда нет стилуса.md",
    "1_SEM/Math/Лекции Математика.md",
    "Math/Приколюха.md",
    "Math/Лекции Математика.md",
    "Математика/Лекции Математика.md"
  ]
}